11
22
 
44
55
66
Ravi
Ravi

Baba
Baba
Baba

11
22
33
44
55
66 
55
66
Ravi
Ravi

Baba
Baba
Baba
11
22
33
44
55
66
Branch1
11
22
33
44
 
66
Branch1
11
22
33
44
55
66
Ravi
Ravi

Baba
Baba
Baba
11
22
33
44
55
66
Branch1
11
22
33
44
55
66
Ravi
Ravi

Baba
Baba
Baba

11
22
33
44
55
66
Branch1
11
22
33
 
44
55
66
Ravi
Ravi

Baba
Baba
Baba
